{
    "name": "QSFP Control",
    "mnemonic": "qsfp_ctrl",
    "desc": "QSFP Low-Speed Signaling",
    "version": "1.0.0",
    "tangoClassName": "DsTalonDxQsfpCtrl",
    "tangoClassTitle": "Talon-DX QSFP Module Control TANGO Device",
    "tangoClassDescription": "TANGO Device Server for monitor and control of Talon-DX QSFP Control Intel Stratix 10 FPGA IP Core Module.",
    "registers": {
        "ctrl": {
            "name": "Control",
            "addressOffset": "0x0",
            "desc": "QSFP Low-Speed Control.",
            "fields": {
                "mod_sel_n": {
                    "name": "mod_sel_n",
                    "desc": "When set to '0', the QSFP module responds to 2-wire serial communication commands. When set to '1' the module does not respond to or acknowledge any 2-wire interface communication from the host. This allows the use of multiple QSFP module on a single 2-wire bus.",
                    "bitOffset": 0,
                    "bitWidth": 1,
                    "ftype": "boolean",
                    "reset": 1,
                    "access": "rw",
                    "tangoAttName": "modeSelect",
                    "tangoAttDesc": "Read or write the mode select value directly to the register using the attribute construct.",
                    "tangoAttLabel": "Mode Select",
                    "tangoCommand": "ModeSelect",
                    "tangoCommandArginType": "DevULong",
                    "tangoCommandArginDesc": "Write 0 to configure QSFP to respond to 2-wire serial comm commands, Write 1 to disable 2-wire interface."
                },
                "reset_n": {
                    "name": "reset_n",
                    "desc": "Toggling this field to '0' then back to '1' initiates a complete QSFP module reset, returning all user module settings to their default state. The module indicates completion of reset by posting an interrupt signal.",
                    "bitOffset": 1,
                    "bitWidth": 1,
                    "ftype": "boolean",
                    "reset": 1,
                    "access": "rw",
                    "tangoAttName": "reset",
                    "tangoAttDesc": "Read or write the reset bit directly to the register via the attribute construct.",
                    "tangoAttLabel": "Reset",
                    "tangoCommand": "ResetDevice",
                    "tangoCommandArginType": "DevULong",
                    "tangoCommandArginDesc": "Write 0 then write 1 to initiate a complete QSFP module reset."
                },
                "lowpwr": {
                    "name": "lowpwr",
                    "desc": "Setting this field to '1' sets the module in low-power mode. This essentially disables the laser and receiver but keeps the I2C accessable.",
                    "bitOffset": 2,
                    "bitWidth": 1,
                    "ftype": "boolean",
                    "reset": 0,
                    "access": "rw",
                    "tangoAttName": "lowPower",
                    "tangoAttDesc": "Read or write the low power bit directly to the register via the attribute construct.",
                    "tangoAttLabel": "Low Power",
                    "tangoCommand": "LowPower",
                    "tangoCommandArginType": "DevULong",
                    "tangoCommandArginDesc": "Write 1 to set module in low-power mode. Write 0 to remove from low-power mode."
                }
            }
        },
        "status": {
            "name": "Status",
            "addressOffset": "0x4",
            "desc": "QSFP Low-Speed Status.",
            "fields": {
                "mod_prs_n": {
                    "name": "mod_prs_n",
                    "desc": "When read as '0' this field indicates that the QSFP module is present. When read as '1' this field indicates that the QSFP module is not present.",
                    "bitOffset": 0,
                    "bitWidth": 1,
                    "ftype": "boolean",
                    "access": "ro",
                    "tangoAttName": "present"
                },
                "interrupt_n": {
                    "name": "interrupt_n",
                    "desc": "When read as '0' this field indicates that the module has a pending interrupt that can be serviced through the 2-wire serial interface.",
                    "bitOffset": 1,
                    "bitWidth": 1,
                    "ftype": "boolean",
                    "access": "ro",
                    "tangoAttName": "interrupt"
                }
            }
        }
    }
}